CPU/simulation/qsim/CPU.msim.vcd
$comment
	File created using the following command:
		vcd file CPU.msim.vcd -direction
$end
$date
	Fri Jun 28 21:14:29 2019
$end
$version
	ModelSim Version 10.5b
$end
$timescale
	1ps
$end

$scope module CPU_vlg_vec_tst $end
$var reg 1 ! clock $end
$var wire 1 " Talu $end
$var wire 1 # Tx [1] $end
$var wire 1 $ Tx [0] $end
$var wire 1 % Ty [1] $end
$var wire 1 & Ty [0] $end
$var wire 1 ' Tz [1] $end
$var wire 1 ( Tz [0] $end
$var wire 1 ) counter [2] $end
$var wire 1 * counter [1] $end
$var wire 1 + counter [0] $end
$var wire 1 , outALU [3] $end
$var wire 1 - outALU [2] $end
$var wire 1 . outALU [1] $end
$var wire 1 / outALU [0] $end
$var wire 1 0 valueMemory [3] $end
$var wire 1 1 valueMemory [2] $end
$var wire 1 2 valueMemory [1] $end
$var wire 1 3 valueMemory [0] $end
$var wire 1 4 valueX [3] $end
$var wire 1 5 valueX [2] $end
$var wire 1 6 valueX [1] $end
$var wire 1 7 valueX [0] $end
$var wire 1 8 valueY [3] $end
$var wire 1 9 valueY [2] $end
$var wire 1 : valueY [1] $end
$var wire 1 ; valueY [0] $end
$var wire 1 < valueZ [3] $end
$var wire 1 = valueZ [2] $end
$var wire 1 > valueZ [1] $end
$var wire 1 ? valueZ [0] $end

$scope module i1 $end
$var wire 1 @ gnd $end
$var wire 1 A vcc $end
$var wire 1 B unknown $end
$var tri1 1 C devclrn $end
$var tri1 1 D devpor $end
$var tri1 1 E devoe $end
$var wire 1 F ~QUARTUS_CREATED_GND~I_combout $end
$var wire 1 G clock~input_o $end
$var wire 1 H clock~inputCLKENA0_outclk $end
$var wire 1 I comb_3|out[0]~2_combout $end
$var wire 1 J comb_3|out[1]~0_combout $end
$var wire 1 K comb_3|out[2]~1_combout $end
$var wire 1 L comb_3|out[2]~DUPLICATE_q $end
$var wire 1 M comb_3|out[1]~DUPLICATE_q $end
$var wire 1 N controller|Mux1~0_combout $end
$var wire 1 O controller|Tx[0]~feeder_combout $end
$var wire 1 P controller|Tx[0]~0_combout $end
$var wire 1 Q comb_3|out[0]~DUPLICATE_q $end
$var wire 1 R controller|Mux0~0_combout $end
$var wire 1 S controller|Tx[1]~feeder_combout $end
$var wire 1 T regX|Mux3~0_combout $end
$var wire 1 U regX|out[0]~DUPLICATE_q $end
$var wire 1 V controller|Mux3~1_combout $end
$var wire 1 W regX|Mux2~0_combout $end
$var wire 1 X regX|out[1]~feeder_combout $end
$var wire 1 Y controller|Tx[0]~DUPLICATE_q $end
$var wire 1 Z regX|out[1]~0_combout $end
$var wire 1 [ regX|out[1]~DUPLICATE_q $end
$var wire 1 \ regX|Mux1~0_combout $end
$var wire 1 ] regX|out[2]~DUPLICATE_q $end
$var wire 1 ^ regX|Mux0~0_combout $end
$var wire 1 _ controller|Mux2~0_combout $end
$var wire 1 ` controller|Mux3~0_combout $end
$var wire 1 a controller|Talu~q $end
$var wire 1 b controller|Talu~0_combout $end
$var wire 1 c controller|Talu~DUPLICATE_q $end
$var wire 1 d regY|out[0]~DUPLICATE_q $end
$var wire 1 e alu|Add0~18_cout $end
$var wire 1 f alu|Add0~1_sumout $end
$var wire 1 g regY|Mux3~0_combout $end
$var wire 1 h alu|Add0~2 $end
$var wire 1 i alu|Add0~5_sumout $end
$var wire 1 j regY|Mux2~0_combout $end
$var wire 1 k regY|Mux3~1_combout $end
$var wire 1 l regY|out[1]~DUPLICATE_q $end
$var wire 1 m alu|Add0~6 $end
$var wire 1 n alu|Add0~9_sumout $end
$var wire 1 o regY|Mux1~0_combout $end
$var wire 1 p regY|out[2]~DUPLICATE_q $end
$var wire 1 q alu|Add0~10 $end
$var wire 1 r alu|Add0~13_sumout $end
$var wire 1 s regY|Mux0~0_combout $end
$var wire 1 t controller|Mux5~0_combout $end
$var wire 1 u regZ|Mux3~0_combout $end
$var wire 1 v regZ|out[0]~DUPLICATE_q $end
$var wire 1 w regZ|Mux2~0_combout $end
$var wire 1 x regZ|out[1]~0_combout $end
$var wire 1 y regZ|Mux1~0_combout $end
$var wire 1 z regZ|Mux0~0_combout $end
$var wire 1 { controller|Ty[0]~DUPLICATE_q $end
$var wire 1 | regX|out [3] $end
$var wire 1 } regX|out [2] $end
$var wire 1 ~ regX|out [1] $end
$var wire 1 !! regX|out [0] $end
$var wire 1 "! comb_4|value [3] $end
$var wire 1 #! comb_4|value [2] $end
$var wire 1 $! comb_4|value [1] $end
$var wire 1 %! comb_4|value [0] $end
$var wire 1 &! regY|out [3] $end
$var wire 1 '! regY|out [2] $end
$var wire 1 (! regY|out [1] $end
$var wire 1 )! regY|out [0] $end
$var wire 1 *! regZ|out [3] $end
$var wire 1 +! regZ|out [2] $end
$var wire 1 ,! regZ|out [1] $end
$var wire 1 -! regZ|out [0] $end
$var wire 1 .! controller|Tx [1] $end
$var wire 1 /! controller|Tx [0] $end
$var wire 1 0! comb_3|out [2] $end
$var wire 1 1! comb_3|out [1] $end
$var wire 1 2! comb_3|out [0] $end
$var wire 1 3! controller|Ty [1] $end
$var wire 1 4! controller|Ty [0] $end
$var wire 1 5! controller|Tz [1] $end
$var wire 1 6! controller|Tz [0] $end
$upscope $end
$upscope $end
$enddefinitions $end
#0
$dumpvars
0!
0"
0$
0#
0&
0%
0(
0'
0+
0*
0)
0/
0.
0-
0,
03
02
11
00
07
06
05
04
0;
0:
09
08
0?
0>
0=
0<
0@
1A
xB
1C
1D
1E
0F
0G
0H
1I
0J
0K
0L
0M
1N
1O
1P
0Q
0R
0S
0T
0U
0V
0W
0X
0Y
1Z
0[
0\
0]
0^
0_
0`
0a
0b
0c
0d
0e
0f
0g
0h
0i
0j
1k
0l
0m
0n
0o
0p
0q
0r
0s
0t
0u
0v
0w
1x
0y
0z
0{
0!!
0~
0}
0|
0%!
0$!
z#!
z"!
0)!
0(!
0'!
0&!
0-!
0,!
0+!
0*!
0/!
0.!
02!
01!
00!
04!
03!
06!
z5!
$end
#10000
1!
1G
1H
1/!
12!
1Y
1Q
1+
1$
1`
1V
1J
0I
1\
#20000
0!
0G
0H
#30000
1!
1G
1H
14!
1}
1M
02!
1{
1]
1$!
0Q
11!
01
1*
0+
12
15
1&
1'
0x
1W
1I
0\
1n
1-
1X
1o
#40000
0!
0G
0H
#50000
1!
1G
1H
1'!
1~
0}
12!
1p
0]
1[
1Q
1%!
13
1+
16
05
19
0N
1T
1R
1K
0J
0I
1i
1b
1.
1S
0O
1j
#60000
0!
0G
0H
#70000
1!
1G
1H
1(!
1!!
1a
0/!
0M
1L
02!
1l
1c
0Y
1U
1.!
0Q
10!
01!
0*
1)
0+
1#
17
0$
1"
1:
0W
1e
0Z
1q
1_
0V
1I
1r
0n
0-
1,
1f
0r
0X
0o
1s
0,
1/
0s
1g
#80000
0!
0G
0H
#90000
1!
1G
1H
0'!
1d
12!
0p
1)!
13!
1Q
1+
1%
1;
09
1h
0q
0R
1t
0`
0_
1V
1J
0I
0f
1n
1o
0g
1-
0/
1m
0i
1r
0S
1,
0.
1q
0n
0-
0r
0,
#100000
0!
0G
0H
#110000
1!
1G
1H
1'!
0d
04!
1M
02!
0{
16!
1p
0)!
03!
0.!
0Q
11!
1*
0+
0#
0%
0;
19
1(
0&
0'
1R
1x
0h
0P
1Z
0T
0t
1`
1_
1I
1y
1w
0o
0j
1f
1n
1-
1/
0m
1i
1S
1.
0n
0-
#120000
0!
0G
0H
#130000
1!
1G
1H
0(!
0'!
0~
0!!
12!
1+!
1,!
0p
0l
0[
0U
1Q
1+
07
06
0:
09
1>
1=
1h
0q
0R
1t
0`
0_
0K
0J
0I
0f
1n
0w
0y
1-
0/
1m
0i
1r
0S
1,
0.
1q
0n
0-
0r
0,
#140000
0!
0G
0H
#150000
1!
1G
1H
0M
0L
02!
0+!
0,!
0Q
00!
01!
0*
0)
0+
0>
0=
1N
1P
0t
0V
1I
1O
#160000
0!
0G
0H
#170000
1!
1G
1H
1/!
12!
06!
1Y
0$!
1Q
0%!
11
03
1+
02
1$
0(
1`
1V
1J
0I
0b
1\
#180000
0!
0G
0H
#190000
1!
1G
1H
0a
14!
1}
1M
02!
1{
0c
1]
1$!
0Q
11!
01
1*
0+
12
15
0"
1&
1'
0x
0m
0e
1W
0h
1I
1r
1i
0\
1f
1/
1.
1,
0q
1n
0f
0i
1X
1g
1j
1s
0.
0/
1-
0r
0j
0g
1o
0,
0s
#200000
0!
0G
0H
#210000
1!
1G
1H
1'!
1~
0}
12!
1p
0]
1[
1Q
1%!
13
1+
16
05
19
0N
1T
1R
1K
0J
0I
1i
1b
1.
1S
0O
1j
#220000
0!
0G
0H
#230000
1!
1G
1H
1(!
1!!
1a
0/!
0M
1L
02!
1l
1c
0Y
1U
1.!
0Q
10!
01!
0*
1)
0+
1#
17
0$
1"
1:
0W
1e
0Z
1q
1_
0V
1I
1r
0n
0-
1,
1f
0r
0X
0o
1s
0,
1/
0s
1g
#240000
0!
0G
0H
#250000
1!
1G
1H
0'!
1d
12!
0p
1)!
13!
1Q
1+
1%
1;
09
1h
0q
0R
1t
0`
0_
1V
1J
0I
0f
1n
1o
0g
1-
0/
1m
0i
1r
0S
1,
0.
1q
0n
0-
0r
0,
#260000
0!
0G
0H
#270000
1!
1G
1H
1'!
0d
04!
1M
02!
0{
16!
1p
0)!
03!
0.!
0Q
11!
1*
0+
0#
0%
0;
19
1(
0&
0'
1R
1x
0h
0P
1Z
0T
0t
1`
1_
1I
1y
1w
0o
0j
1f
1n
1-
1/
0m
1i
1S
1.
0n
0-
#280000
0!
0G
0H
#290000
1!
1G
1H
0(!
0'!
0~
0!!
12!
1+!
1,!
0p
0l
0[
0U
1Q
1+
07
06
0:
09
1>
1=
1h
0q
0R
1t
0`
0_
0K
0J
0I
0f
1n
0w
0y
1-
0/
1m
0i
1r
0S
1,
0.
1q
0n
0-
0r
0,
#300000
0!
0G
0H
#310000
1!
1G
1H
0M
0L
02!
0+!
0,!
0Q
00!
01!
0*
0)
0+
0>
0=
1N
1P
0t
0V
1I
1O
#320000
0!
0G
0H
#330000
1!
1G
1H
1/!
12!
06!
1Y
0$!
1Q
0%!
11
03
1+
02
1$
0(
1`
1V
1J
0I
0b
1\
#340000
0!
0G
0H
#350000
1!
1G
1H
0a
14!
1}
1M
02!
1{
0c
1]
1$!
0Q
11!
01
1*
0+
12
15
0"
1&
1'
0x
0m
0e
1W
0h
1I
1r
1i
0\
1f
1/
1.
1,
0q
1n
0f
0i
1X
1g
1j
1s
0.
0/
1-
0r
0j
0g
1o
0,
0s
#360000
0!
0G
0H
#370000
1!
1G
1H
1'!
1~
0}
12!
1p
0]
1[
1Q
1%!
13
1+
16
05
19
0N
1T
1R
1K
0J
0I
1i
1b
1.
1S
0O
1j
#380000
0!
0G
0H
#390000
1!
1G
1H
1(!
1!!
1a
0/!
0M
1L
02!
1l
1c
0Y
1U
1.!
0Q
10!
01!
0*
1)
0+
1#
17
0$
1"
1:
0W
1e
0Z
1q
1_
0V
1I
1r
0n
0-
1,
1f
0r
0X
0o
1s
0,
1/
0s
1g
#400000
0!
0G
0H
#410000
1!
1G
1H
0'!
1d
12!
0p
1)!
13!
1Q
1+
1%
1;
09
1h
0q
0R
1t
0`
0_
1V
1J
0I
0f
1n
1o
0g
1-
0/
1m
0i
1r
0S
1,
0.
1q
0n
0-
0r
0,
#420000
0!
0G
0H
#430000
1!
1G
1H
1'!
0d
04!
1M
02!
0{
16!
1p
0)!
03!
0.!
0Q
11!
1*
0+
0#
0%
0;
19
1(
0&
0'
1R
1x
0h
0P
1Z
0T
0t
1`
1_
1I
1y
1w
0o
0j
1f
1n
1-
1/
0m
1i
1S
1.
0n
0-
#440000
0!
0G
0H
#450000
1!
1G
1H
0(!
0'!
0~
0!!
12!
1+!
1,!
0p
0l
0[
0U
1Q
1+
07
06
0:
09
1>
1=
1h
0q
0R
1t
0`
0_
0K
0J
0I
0f
1n
0w
0y
1-
0/
1m
0i
1r
0S
1,
0.
1q
0n
0-
0r
0,
#460000
0!
0G
0H
#470000
1!
1G
1H
0M
0L
02!
0+!
0,!
0Q
00!
01!
0*
0)
0+
0>
0=
1N
1P
0t
0V
1I
1O
#480000
0!
0G
0H
#490000
1!
1G
1H
1/!
12!
06!
1Y
0$!
1Q
0%!
11
03
1+
02
1$
0(
1`
1V
1J
0I
0b
1\
#500000
0!
0G
0H
#510000
1!
1G
1H
0a
14!
1}
1M
02!
1{
0c
1]
1$!
0Q
11!
01
1*
0+
12
15
0"
1&
1'
0x
0m
0e
1W
0h
1I
1r
1i
0\
1f
1/
1.
1,
0q
1n
0f
0i
1X
1g
1j
1s
0.
0/
1-
0r
0j
0g
1o
0,
0s
#520000
0!
0G
0H
#530000
1!
1G
1H
1'!
1~
0}
12!
1p
0]
1[
1Q
1%!
13
1+
16
05
19
0N
1T
1R
1K
0J
0I
1i
1b
1.
1S
0O
1j
#540000
0!
0G
0H
#550000
1!
1G
1H
1(!
1!!
1a
0/!
0M
1L
02!
1l
1c
0Y
1U
1.!
0Q
10!
01!
0*
1)
0+
1#
17
0$
1"
1:
0W
1e
0Z
1q
1_
0V
1I
1r
0n
0-
1,
1f
0r
0X
0o
1s
0,
1/
0s
1g
#560000
0!
0G
0H
#570000
1!
1G
1H
0'!
1d
12!
0p
1)!
13!
1Q
1+
1%
1;
09
1h
0q
0R
1t
0`
0_
1V
1J
0I
0f
1n
1o
0g
1-
0/
1m
0i
1r
0S
1,
0.
1q
0n
0-
0r
0,
#580000
0!
0G
0H
#590000
1!
1G
1H
1'!
0d
04!
1M
02!
0{
16!
1p
0)!
03!
0.!
0Q
11!
1*
0+
0#
0%
0;
19
1(
0&
0'
1R
1x
0h
0P
1Z
0T
0t
1`
1_
1I
1y
1w
0o
0j
1f
1n
1-
1/
0m
1i
1S
1.
0n
0-
#600000
0!
0G
0H
#610000
1!
1G
1H
0(!
0'!
0~
0!!
12!
1+!
1,!
0p
0l
0[
0U
1Q
1+
07
06
0:
09
1>
1=
1h
0q
0R
1t
0`
0_
0K
0J
0I
0f
1n
0w
0y
1-
0/
1m
0i
1r
0S
1,
0.
1q
0n
0-
0r
0,
#620000
0!
0G
0H
#630000
1!
1G
1H
0M
0L
02!
0+!
0,!
0Q
00!
01!
0*
0)
0+
0>
0=
1N
1P
0t
0V
1I
1O
#640000
0!
0G
0H
#650000
1!
1G
1H
1/!
12!
06!
1Y
0$!
1Q
0%!
11
03
1+
02
1$
0(
1`
1V
1J
0I
0b
1\
#660000
0!
0G
0H
#670000
1!
1G
1H
0a
14!
1}
1M
02!
1{
0c
1]
1$!
0Q
11!
01
1*
0+
12
15
0"
1&
1'
0x
0m
0e
1W
0h
1I
1r
1i
0\
1f
1/
1.
1,
0q
1n
0f
0i
1X
1g
1j
1s
0.
0/
1-
0r
0j
0g
1o
0,
0s
#680000
0!
0G
0H
#690000
1!
1G
1H
1'!
1~
0}
12!
1p
0]
1[
1Q
1%!
13
1+
16
05
19
0N
1T
1R
1K
0J
0I
1i
1b
1.
1S
0O
1j
#700000
0!
0G
0H
#710000
1!
1G
1H
1(!
1!!
1a
0/!
0M
1L
02!
1l
1c
0Y
1U
1.!
0Q
10!
01!
0*
1)
0+
1#
17
0$
1"
1:
0W
1e
0Z
1q
1_
0V
1I
1r
0n
0-
1,
1f
0r
0X
0o
1s
0,
1/
0s
1g
#720000
0!
0G
0H
#730000
1!
1G
1H
0'!
1d
12!
0p
1)!
13!
1Q
1+
1%
1;
09
1h
0q
0R
1t
0`
0_
1V
1J
0I
0f
1n
1o
0g
1-
0/
1m
0i
1r
0S
1,
0.
1q
0n
0-
0r
0,
#740000
0!
0G
0H
#750000
1!
1G
1H
1'!
0d
04!
1M
02!
0{
16!
1p
0)!
03!
0.!
0Q
11!
1*
0+
0#
0%
0;
19
1(
0&
0'
1R
1x
0h
0P
1Z
0T
0t
1`
1_
1I
1y
1w
0o
0j
1f
1n
1-
1/
0m
1i
1S
1.
0n
0-
#760000
0!
0G
0H
#770000
1!
1G
1H
0(!
0'!
0~
0!!
12!
1+!
1,!
0p
0l
0[
0U
1Q
1+
07
06
0:
09
1>
1=
1h
0q
0R
1t
0`
0_
0K
0J
0I
0f
1n
0w
0y
1-
0/
1m
0i
1r
0S
1,
0.
1q
0n
0-
0r
0,
#780000
0!
0G
0H
#790000
1!
1G
1H
0M
0L
02!
0+!
0,!
0Q
00!
01!
0*
0)
0+
0>
0=
1N
1P
0t
0V
1I
1O
#800000
0!
0G
0H
#810000
1!
1G
1H
1/!
12!
06!
1Y
0$!
1Q
0%!
11
03
1+
02
1$
0(
1`
1V
1J
0I
0b
1\
#820000
0!
0G
0H
#830000
1!
1G
1H
0a
14!
1}
1M
02!
1{
0c
1]
1$!
0Q
11!
01
1*
0+
12
15
0"
1&
1'
0x
0m
0e
1W
0h
1I
1r
1i
0\
1f
1/
1.
1,
0q
1n
0f
0i
1X
1g
1j
1s
0.
0/
1-
0r
0j
0g
1o
0,
0s
#840000
0!
0G
0H
#850000
1!
1G
1H
1'!
1~
0}
12!
1p
0]
1[
1Q
1%!
13
1+
16
05
19
0N
1T
1R
1K
0J
0I
1i
1b
1.
1S
0O
1j
#860000
0!
0G
0H
#870000
1!
1G
1H
1(!
1!!
1a
0/!
0M
1L
02!
1l
1c
0Y
1U
1.!
0Q
10!
01!
0*
1)
0+
1#
17
0$
1"
1:
0W
1e
0Z
1q
1_
0V
1I
1r
0n
0-
1,
1f
0r
0X
0o
1s
0,
1/
0s
1g
#880000
0!
0G
0H
#890000
1!
1G
1H
0'!
1d
12!
0p
1)!
13!
1Q
1+
1%
1;
09
1h
0q
0R
1t
0`
0_
1V
1J
0I
0f
1n
1o
0g
1-
0/
1m
0i
1r
0S
1,
0.
1q
0n
0-
0r
0,
#900000
0!
0G
0H
#910000
1!
1G
1H
1'!
0d
04!
1M
02!
0{
16!
1p
0)!
03!
0.!
0Q
11!
1*
0+
0#
0%
0;
19
1(
0&
0'
1R
1x
0h
0P
1Z
0T
0t
1`
1_
1I
1y
1w
0o
0j
1f
1n
1-
1/
0m
1i
1S
1.
0n
0-
#920000
0!
0G
0H
#930000
1!
1G
1H
0(!
0'!
0~
0!!
12!
1+!
1,!
0p
0l
0[
0U
1Q
1+
07
06
0:
09
1>
1=
1h
0q
0R
1t
0`
0_
0K
0J
0I
0f
1n
0w
0y
1-
0/
1m
0i
1r
0S
1,
0.
1q
0n
0-
0r
0,
#940000
0!
0G
0H
#950000
1!
1G
1H
0M
0L
02!
0+!
0,!
0Q
00!
01!
0*
0)
0+
0>
0=
1N
1P
0t
0V
1I
1O
#960000
0!
0G
0H
#970000
1!
1G
1H
1/!
12!
06!
1Y
0$!
1Q
0%!
11
03
1+
02
1$
0(
1`
1V
1J
0I
0b
1\
#980000
0!
0G
0H
#990000
1!
1G
1H
0a
14!
1}
1M
02!
1{
0c
1]
1$!
0Q
11!
01
1*
0+
12
15
0"
1&
1'
0x
0m
0e
1W
0h
1I
1r
1i
0\
1f
1/
1.
1,
0q
1n
0f
0i
1X
1g
1j
1s
0.
0/
1-
0r
0j
0g
1o
0,
0s
